<svg width="17" height="18" viewBox="0 0 17 18" fill="none" xmlns="http://www.w3.org/2000/svg">
<rect y="1.91992" width="2.23104" height="21.5668" transform="rotate(-45 0 1.91992)" fill="#2C2C2C"/>
<rect x="15.25" y="0.342285" width="2.23104" height="21.5668" transform="rotate(45 15.25 0.342285)" fill="#2C2C2C"/>
</svg>
